Project 1 - Data Visualization
…
Lets dig in on the state with the 3rd most companies in the data set. Imagine you work for the state and are interested in how many people are employed by companies in different industries. Create a plot that shows the average and/or median employment by industry for companies in this state (only use cases with full data, use Rs complete.cases() function.) In addition to this, your graph should show how variable the ranges are, and you should deal with outliers.

For this question, I create a box plot for each industry in New York, the state with 3rd highest number of registered companies. The first box plot visualized is not intellible because of the dominance of outliers. The second box plot zooms in, thereby excluding those outliers from the visual.

#State with 3rd most companies (i.e. New York)
library(dplyr)

#Mean by industry
df <- inc %>% 
  group_by(Industry) %>% 
  filter(State == "NY") %>% 
  summarize(Mean = mean(Employees, na.rm=TRUE)); df

## # A tibble: 25 x 2
##    Industry                       Mean
##    <fct>                         <dbl>
##  1 Advertising & Marketing        58.4
##  2 Business Products & Services 1492. 
##  3 Computer Hardware              44  
##  4 Construction                   61  
##  5 Consumer Products & Services  626. 
##  6 Education                      59.9
##  7 Energy                        129. 
##  8 Engineering                    53.5
##  9 Environmental Services        155  
## 10 Financial Services            144. 
## # ... with 15 more rows

#Median by industry
df <- inc %>% 
  group_by(Industry) %>% 
  filter(State == "NY") %>% 
  summarize(Median = median(Employees, na.rm=TRUE)); df

## # A tibble: 25 x 2
##    Industry                     Median
##    <fct>                         <dbl>
##  1 Advertising & Marketing        38  
##  2 Business Products & Services   70.5
##  3 Computer Hardware              44  
##  4 Construction                   24.5
##  5 Consumer Products & Services   25  
##  6 Education                      50.5
##  7 Energy                        120  
##  8 Engineering                    54.5
##  9 Environmental Services        155  
## 10 Financial Services             81  
## # ... with 15 more rows
…
